{
  "label": "Cyberware",
  "mapping": {
    "dvTable": "system.dvTable"
  },
  "entries": {
    "Airhypo Cyberfinger": {
      "name": "Ciberdedo Airhypo",
      "description": "<p>\n  Cyberfinger that holds an Airhypo. Can only be installed on a modular finger\n  cyberhand.\n</p>\n"
    },
    "Ballpoint Cyberfinger": {
      "name": "Ciberdedo Birome",
      "description": "<p>\n  Cyberfinger with a ballpoint pen inside. Can only be installed on a modular\n  finger cyberhand.\n</p>\n"
    },
    "Budget Chipware Socket": {
      "name": "Zócalo de Chips Implantado Barato",
      "description": "<p>\n  A cheap socket for a single installation of chipware. Damage to the head sends\n  the installed chipware 30 m/yds away, potentially breaking it.\n</p>\n"
    },
    "Bullet Storage Cyberfinger": {
      "name": "Ciberdedo de Almacenamiento de Balas",
      "description": "<p>\n  Cyberfinger that can be used to conceal two rounds of ammunition of any type.\n  Can only be installed on a modular finger cyberhand.\n</p>\n"
    },
    "Dartgun Cyberfinger": {
      "name": "Ciberdedo Lanzadardos",
      "description": "<p>\n  Cyberfinger that holds a concealed Dartgun. Can only be installed on a modular\n  finger cyberhand.\n</p>\n",
      "dvTable": "VD Pistola"
    },
    "Discount Cyberaudio Suite": {
      "name": "Ciberaudio Suite de Descuento",
      "description": "<p>A cheap and bulky interface for an audio enhancement.</p>\n"
    },
    "Explicit Memory Stimulator": {
      "name": "Estimulador de Memoria Explícita",
      "description": "<p>Chipware.</p>\n<p>Enhances memorization. +2 Concentration while installed.</p>\n"
    },
    "Extra-Jointed Cyberarm Upgrade": {
      "name": "Montura de Ciberbrazo Extra-Articulada",
      "description": "<p>Enchances cyberarm articulation. +2 Contortionist.</p>\n"
    },
    "Extra-Jointed Cyberleg Upgrade": {
      "name": "Montura de Ciberpierna Extra-Articulada",
      "description": "<p>Enchances cyberleg articulation. +2 Contortionist.</p>\n"
    },
    "Flashbulb": {
      "name": "Deslumbrante",
      "description": "<p>Requires cyberarm. User can attempt to blind anyone within 25m/yds.</p>\n"
    },
    "Flashlight Cyberfinger": {
      "name": "Ciberdedo Linterna",
      "description": "<p>\n  Cyberfinger that holds a concealed Flashlight. Can only be installed on a\n  modular finger cyberhand.\n</p>\n"
    },
    "Hardened Shielding (Borgware)": {
      "name": "Escudo Endurecido (Borgware)",
      "description": "<p>Borgware.</p>\n<p>This is installed to is not affected by EMP effects.</p>\n"
    },
    "Hardened Shielding (Cybereye)": {
      "name": "Escudo Endurecido (Ciberóptico)",
      "description": "<p>The eye and installed options are not affected by EMP effects.</p>\n"
    },
    "Hardened Shielding (Internal)": {
      "name": "Escudo Endurecido (Interno)",
      "description": "<p>Internal Cyberware.</p>\n<p>All internal cyberware is not affected by EMP effects.</p>\n"
    },
    "Heuristic Health Monitor": {
      "name": "Seguidor Heurístico de la Salud",
      "description": "<p>Requires biomonitor. Can know HP at a glance.</p>\n"
    },
    "Homing Tracer Cyberfinger": {
      "name": "Ciberdedo Rastreador",
      "description": "<p>\n  Cyberfinger that functions like a Homing Tracer. Can only be installed on a\n  modular finger cyberhand.\n</p>\n"
    },
    "Implanted Fūma Kotarō Linear Frame": {
      "name": "Implante de Armazón Lineal Fūma Kotarō",
      "description": "<ul>\n  <li>Requires BODY 8, 2 Grafted Muscle and Bone Lace</li>\n  <li>\n    Increases BODY stat to 12 (adjusting your HP, Wound Threshold, and Death\n    Save)\n  </li>\n  <li>Increase Stealth +2</li>\n  <li>Drawing and sheathing the frame's weapons does not require an Action</li>\n  <li>\n    A Conceal check is not required for the weapons concealed in the frame.\n  </li>\n  <li>\n    <p>Frame has one of two weapon options*:</p>\n    <ul>\n      <li>Two excellent quality exotic heavy melee weapons</li>\n      <li>\n        One excellent quality light melee weapon and one excellent quality\n        exotic very heavy melee weapon\n      </li>\n    </ul>\n  </li>\n</ul>\n<p><em>* Must be manually added.</em></p>\n"
    },
    "Implanted LF-001 SWAT Linear Frame": {
      "name": "Implante de Armazón Lineal LF-001 SWAT",
      "description": "<ul>\n  <li>Requires BODY 8, 2 Grafted Muscle and Bone Lace</li>\n  <li>\n    Increases BODY stat to 12 (adjusting your HP, Wound Threshold, and Death\n    Save)\n  </li>\n  <li>Ignores the normal movement penalty for climbing and swimming</li>\n</ul>\n"
    },
    "Implanted Vermilion Linear Frame": {
      "name": "Implante de Armazón Lineal Bermellón",
      "description": "<ul>\n  <li>Requires BODY 8, 2 Grafted Muscle and Bone Lace</li>\n  <li>\n    Increases BODY stat to 12 (adjusting your HP, Wound Threshold, and Death\n    Save)\n  </li>\n  <li>No movement penalty for jumping</li>\n  <li>Operates as if paired Skate Feet are installed</li>\n</ul>\n"
    },
    "Integrated Cyberdeck Upgrade": {
      "name": "Actualización de Ciberterminal Integrada",
      "description": "<p>Requires Cyberdeck (Hardwired), adds an extra slot to the cyberdeck.</p>\n"
    },
    "Laser Pointer Cyberfinger": {
      "name": "Ciberdedo Puntero Láser",
      "description": "<p>\n  Cyberfinger holding a concealed Laser Pointer. Can only be installed on a\n  modular finger cyberhand.\n</p>\n"
    },
    "Lighter Cyberfinger": {
      "name": "Ciberdedo Encendedor",
      "description": "<p>\n  Cyberfinger holding a concealed lighter. Can only be installed on a modular\n  finger cyberhand.\n</p>\n"
    },
    "Lockpick Cyberfinger": {
      "name": "Ciberdedo Ganzúa",
      "description": "<p>\n  Cyberfinger holding a concealed Lock Picking Set. Can only be installed on a\n  modular finger cyberhand.\n</p>\n"
    },
    "Microphone Cyberfinger": {
      "name": "Ciberdedo Micrófono",
      "description": "<p>\n  Cyberfinger holding a concealed recording device. Can only be installed on a\n  modular finger cyberhand.\n</p>\n"
    },
    "Mini Air Supply Cyberfinger": {
      "name": "Ciberdedo con Mini Suministro de Aire",
      "description": "<p>\n  Cyberfinger with an integrated air tank. Can only be installed on a modular\n  finger cyberhand.\n</p>\n"
    },
    "Modular Finger Cyberhand": {
      "name": "Cibermano con Dedos Modulares",
      "description": "<p>Requires cyberarm. Comes with 5 cyberfingers*.</p>\n<p>*Fingers must be added after installation</p>\n"
    },
    "Modular Finger Enthusiast Cyberhand": {
      "name": "Cibermano de Entusiastas con Dedos Modulares",
      "description": "<p>Borgware. Requires cyberarm. Comes with 8 cyberfingers*.</p>\n<p>*Fingers must be added after installation</p>\n"
    },
    "Neo-Soviet Cyberarm": {
      "name": "Ciberbrazo Neo-Soviet",
      "description": "<p>\n  A soviet cybernetical replacement arm. Comes with a free hand pre-installed.\n  -1 to rolls requiring arm without BODY 8+.\n</p>\n"
    },
    "One Shot Special Cyberfinger": {
      "name": "Ciberdedo Especial 1 Tiro",
      "description": "<p>\n  Cyberfinger that holds a concealed Exotic Heavy Pistol. Can only be installed\n  on a modular finger cyberhand.\n</p>\n",
      "dvTable": "VD Pistola"
    },
    "Popup Net Launcher": {
      "name": "Lanzador de Red Popup",
      "description": "<p>\n  A concealable exotic net launcher. Can't hold anything with this hand while\n  activated.\n</p>\n",
      "dvTable": "VD Escopeta (Perdigones de escopeta)"
    },
    "Popup Shotgun": {
      "name": "Escopeta Popup",
      "description": "<p>\n  A concealable shotgun. Comes with a smartgun link pre-installed*. Can't hold\n  anything with this hand while activated.\n</p>\n<p><em>* Smart Link must be manually added.</em></p>\n",
      "dvTable": "VD Escopeta (Perdigones de escopeta)"
    },
    "RacerBracer": {
      "name": "CubreCorredor",
      "description": "<p>Internal cyberware. Grants immunity to whiplash.</p>\n"
    },
    "Reflex Co-Processor": {
      "name": "Co-Procesador Reflex",
      "description": "<p>Neuralware.</p>\n<p>Negates REF requirement to dodge bullets.</p>\n"
    },
    "Reinforced Cyberarm Upgrade": {
      "name": "Mejora Reforzada de Ciberbrazo",
      "description": "<p>Requires cyberarm. The cyberarm this is installed on cannot be broken.</p>\n"
    },
    "Reinforced Cyberleg Upgrade": {
      "name": "Mejora Reforzada de Ciberpierna",
      "description": "<p>Requires cyberleg. The cyberleg this is installed on cannot be broken.</p>\n"
    },
    "Sponsored Cybereye": {
      "name": "Ciberojo Patrocinado",
      "description": "<p>\n  A replacement eye. Chyron comes pre-installed*. User randomly experiences\n  random ads.\n</p>\n<p><em>*Chyron must be added after installation</em></p>\n"
    },
    "Spray Paint Cyberfinger": {
      "name": "Ciberdedo de Pintura en Aerosol",
      "description": "<p>\n  Cyberfinger functioning as a spray can. Can only be installed on a modular\n  finger cyberhand.\n</p>\n"
    },
    "Squirt Cyberfinger": {
      "name": "Ciberdedo de Chorros",
      "description": "<p>\n  Cyberfinger that can hold and spray various liquids. Can only be installed on\n  a modular finger cyberhand.\n</p>\n"
    },
    "Standard Cyberfinger": {
      "name": "Ciberdedo Estándar",
      "description": "<p>Cyberfinger. Can only be installed on a modular finger cyberhand.</p>\n"
    },
    "Trauma Response Nanomatrix": {
      "name": "Nanomatriz de Respuesta al Trauma",
      "description": "<p>Can fully repair skinweave or subdermal armor once a day.</p>\n"
    },
    "Wirecutter/Scissors Cyberfingers": {
      "name": "Ciberdedo Tijeras/Corta Cables",
      "description": "<p>\n  Cyberfinger pair that can serve as scissors or wirecutters. Can only be\n  installed on a modular finger cyberhand.\n</p>\n"
    }
  }
}