{
  "label": "Vehículos",
  "mapping": {},
  "entries": {
    "AeroCop": {
      "name": "AeroPatrulla",
      "description": "<p>AV4 type Aerodyne. Police version.</p>\n"
    },
    "AeroVox": {
      "name": "AeroVox",
      "description": "<p>AV4 type Aerodyne. Civilian version.</p>\n"
    },
    "Badger Corporate Bus": {
      "name": "Bus Corporativo Tejón",
      "description": "<p>\n  A luxurious bus for corporate road trips. Equally ell equipped for work\n  meetings and after meeting drinks.\n</p>\n"
    },
    "Bellhop": {
      "name": "Bellhop",
      "description": "<p>\n  A one seat Gyrocopter which can be folded to the size of a large suitcase.\n</p>\n"
    },
    "Chupacabra": {
      "name": "Chupacabra",
      "description": "<p>\n  Compact Groundcar built from recycled parts from older vehicles. Low-tech but\n  high-horse-power.\n</p>\n"
    },
    "Destination": {
      "name": "Destino",
      "description": "<p>AV4 style Aerodyne, civilian model.</p>\n"
    },
    "Ebi": {
      "name": "Ebi",
      "description": "<p>Small but well thought out Compact Groundcar.</p>\n"
    },
    "EconoCompact": {
      "name": "EconoCompacto",
      "description": "<p>Small and low-cost Compact Groundcar.</p>\n"
    },
    "Family Star Van": {
      "name": "Furgoneta Estrella Familiar",
      "description": "<p>Comfortable family Compact Groundcar.</p>\n"
    },
    "Gorgon Security Van": {
      "name": "Furgoneta de Seguridad de Gorgon",
      "description": "<p>A monster of an armored van.</p>\n"
    },
    "Grundy": {
      "name": "Grundy",
      "description": "<p>Armored industrial looking Compact Grouncar, with a powerful combat plow.</p>\n"
    },
    "Harriet 100": {
      "name": "Harriet 100",
      "description": "<p>A classic Roadbike with a more feminine look.</p>\n"
    },
    "Harvey 100": {
      "name": "Harvey 100",
      "description": "<p>A classic Roadbike.</p>\n"
    },
    "Harvey Merc": {
      "name": "Harvey Merc",
      "description": "<p>A classic roadbike, this time with mounted weapons.</p>\n"
    },
    "Herakles": {
      "name": "Herakles",
      "description": "<p>AV4 type troop transport, armored and armed.</p>\n"
    },
    "Highway Master Artemis": {
      "name": "Artemis Maestro de las Carreteras",
      "description": "<p>\n  A low-riding Roadbike with retractable glass cover. Has a surpercharge mode\n  that doesn't come with a safety guarantee.\n</p>\n"
    },
    "JetBoy Hoverboard": {
      "name": "JetBoy Hoverboard",
      "description": "<p>A hoverboard driven with Athletics Skill. Can't be upgraded.</p>\n"
    },
    "MegaHauler": {
      "name": "MegaHauler",
      "description": "<p>Armored truck transport. As much a train as a car.</p>\n"
    },
    "Molly 1K": {
      "name": "Molly 1K",
      "description": "<p>Off-road Compact Groundcar.</p>\n"
    },
    "Paladin 500": {
      "name": "Paladín 500",
      "description": "<p>\n  A High Performance Groundcar. Now you can be MadMax. In town. With two mounted\n  Machine Guns.\n</p>\n"
    },
    "Parallax Cybercycle": {
      "name": "Ciberciclo Parallax",
      "description": "<p>Top of the line Superbike.</p>\n"
    },
    "Range Trike": {
      "name": "Ranger Trike",
      "description": "<p>Three wheeled Roadbike.</p>\n"
    },
    "SH-45 Patroller Law": {
      "name": "SH-45 Patrullero",
      "description": "<p>One seat Gyrocopter. Police version, with mounted Machine Gun.</p>\n"
    },
    "SH-45 Patroller": {
      "name": "SH-45 Patrullero",
      "description": "<p>One seat Gyrocopter. Civilian version.</p>\n"
    },
    "Sliver": {
      "name": "Plata",
      "description": "<p>A Roadbike with all the gadgets you'd ever need.</p>\n"
    },
    "Street King Combat Vehicle": {
      "name": "Vehículo de Combate Rey Callejero",
      "description": "<p>\n  A High Performance Groundcar which is large, armored and has a military look.\n</p>\n"
    },
    "TDT 004": {
      "name": "TDT 004",
      "description": "<p>Troop transport Helicopter.</p>\n"
    },
    "The Zacatzontli Pickup Truck": {
      "name": "La Camioneta Zacatzontli",
      "description": "<p>A Compact Groundcar equipped for off-road travel.</p>\n"
    },
    "Thunder-X": {
      "name": "Trueno-X",
      "description": "<p>A top of the line High Performance Groundcar.</p>\n"
    },
    "Volkhov": {
      "name": "Volkhov",
      "description": "<p>\n  An armored pickup Compact Groundcar with mounted machine gun. Comes with a\n  bottle of vodka.\n</p>\n"
    },
    "Yang's Wheels Rickshaw": {
      "name": "Ruedas Rickshaw de Yang",
      "description": "<p>Roadbike with attached trailer for passengers.</p>\n"
    }
  }
}