{
  "label": "Vestimenta",
  "mapping": {},
  "entries": {
    "Asia Pop Bottoms": {
      "name": "Pantalones Asia Pop",
      "description": "<p>\n  Following the latest Asian fashion trends, Asia Pop is sure to catch the eye\n  with it's bright colors and extravagant style.\n</p>\n"
    },
    "Asia Pop Contact Lenses": {
      "name": "Lentes de contacto de Asia Pop",
      "description": "<p>\n  Following the latest Asian fashion trends, Asia Pop is sure to catch the eye\n  with it's bright colors and extravagant style.\n</p>\n"
    },
    "Asia Pop Footwear": {
      "name": "Calzado de Asia Pop",
      "description": "<p>\n  Following the latest Asian fashion trends, Asia Pop is sure to catch the eye\n  with it's bright colors and extravagant style.\n</p>\n"
    },
    "Asia Pop Glasses": {
      "name": "Gafas de Asia Pop",
      "description": "<p>\n  Following the latest Asian fashion trends, Asia Pop is sure to catch the eye\n  with it's bright colors and extravagant style.\n</p>\n"
    },
    "Asia Pop Hat": {
      "name": "Sombrero de Asia Pop",
      "description": "<p>\n  Following the latest Asian fashion trends, Asia Pop is sure to catch the eye\n  with it's bright colors and extravagant style.\n</p>\n"
    },
    "Asia Pop Jacket": {
      "name": "Chaqueta de Asia Pop",
      "description": "<p>\n  Following the latest Asian fashion trends, Asia Pop is sure to catch the eye\n  with it's bright colors and extravagant style.\n</p>\n"
    },
    "Asia Pop Jewelry": {
      "name": "Joyería de Asia Pop",
      "description": "<p>\n  Following the latest Asian fashion trends, Asia Pop is sure to catch the eye\n  with it's bright colors and extravagant style.\n</p>\n"
    },
    "Asia Pop Mirrorshades": {
      "name": "Lentes Espejados de Asia Pop",
      "description": "<p>\n  Following the latest Asian fashion trends, Asia Pop is sure to catch the eye\n  with it's bright colors and extravagant style.\n</p>\n"
    },
    "Asia Pop Top": {
      "name": "Remera de Asia Pop",
      "description": "<p>\n  Following the latest Asian fashion trends, Asia Pop is sure to catch the eye\n  with it's bright colors and extravagant style.\n</p>\n"
    },
    "Bag Lady Chic Bottoms": {
      "name": "Pantalones de Bag Lady Chic",
      "description": "<p>\n  Follow the latest dumpster diver fashion trends! Torn and worn out clothes,\n  perfect if you want that homeless look.\n</p>\n"
    },
    "Bag Lady Chic Contact Lenses": {
      "name": "Lentes de Contacto de Bag Lady Chic",
      "description": "<p>\n  Follow the latest dumpster diver fashion trends! Torn and worn out clothes,\n  perfect if you want that homeless look.\n</p>\n"
    },
    "Bag Lady Chic Footwear": {
      "name": "Calzado de Bag Lady Chic",
      "description": "<p>\n  Follow the latest dumpster diver fashion trends! Torn and worn out clothes,\n  perfect if you want that homeless look.\n</p>\n"
    },
    "Bag Lady Chic Glasses": {
      "name": "Gafas de Bag Lady Chic",
      "description": "<p>\n  Follow the latest dumpster diver fashion trends! Torn and worn out clothes,\n  perfect if you want that homeless look.\n</p>\n"
    },
    "Bag Lady Chic Hat": {
      "name": "Sombrero de Bag Lady Chic",
      "description": "<p>\n  Follow the latest dumpster diver fashion trends! Torn and worn out clothes,\n  perfect if you want that homeless look.\n</p>\n"
    },
    "Bag Lady Chic Jacket": {
      "name": "Chaqueta de Bag Lady Chic",
      "description": "<p>\n  Follow the latest dumpster diver fashion trends! Torn and worn out clothes,\n  perfect if you want that homeless look.\n</p>\n"
    },
    "Bag Lady Chic Jewelry": {
      "name": "Joyeria de Bag Lady Chic",
      "description": "<p>\n  Follow the latest dumpster diver fashion trends! Torn and worn out clothes,\n  perfect if you want that homeless look.\n</p>\n"
    },
    "Bag Lady Chic Mirrorshades": {
      "name": "Lentes Espejados de Bag Lady Chic",
      "description": "<p>\n  Follow the latest dumpster diver fashion trends! Torn and worn out clothes,\n  perfect if you want that homeless look.\n</p>\n"
    },
    "Bag Lady Chic Top": {
      "name": "Remera de Bag Lady Chic",
      "description": "<p>\n  Follow the latest dumpster diver fashion trends! Torn and worn out clothes,\n  perfect if you want that homeless look.\n</p>\n"
    },
    "Bohemian Bottoms": {
      "name": "Pantalones de Bohemios",
      "description": "<p>\n  Channel your inner 70s hippy! Show everyone how much of a free spirit you are\n  with these clothes.\n</p>\n"
    },
    "Bohemian Contact Lenses": {
      "name": "Lentes de Contacto de Bohemios",
      "description": "<p>\n  Channel your inner 70s hippy! Show everyone how much of a free spirit you are\n  with these clothes.\n</p>\n"
    },
    "Bohemian Footwear": {
      "name": "Calzado de Bohemios",
      "description": "<p>\n  Channel your inner 70s hippy! Show everyone how much of a free spirit you are\n  with these clothes.\n</p>\n"
    },
    "Bohemian Glasses": {
      "name": "Gafas de Bohemios",
      "description": "<p>\n  Channel your inner 70s hippy! Show everyone how much of a free spirit you are\n  with these clothes.\n</p>\n"
    },
    "Bohemian Hat": {
      "name": "Sombrero de Bohemios",
      "description": "<p>\n  Channel your inner 70s hippy! Show everyone how much of a free spirit you are\n  with these clothes.\n</p>\n"
    },
    "Bohemian Jacket": {
      "name": "Chaqueta de Bohemios",
      "description": "<p>\n  Channel your inner 70s hippy! Show everyone how much of a free spirit you are\n  with these clothes.\n</p>\n"
    },
    "Bohemian Jewelry": {
      "name": "Joyería de Bohemios",
      "description": "<p>\n  Channel your inner 70s hippy! Show everyone how much of a free spirit you are\n  with these clothes.\n</p>\n"
    },
    "Bohemian Mirrorshades": {
      "name": "Lentes Espejados de Bohemios",
      "description": "<p>\n  Channel your inner 70s hippy! Show everyone how much of a free spirit you are\n  with these clothes.\n</p>\n"
    },
    "Bohemian Top": {
      "name": "Remera de Bohemios",
      "description": "<p>\n  Channel your inner 70s hippy! Show everyone how much of a free spirit you are\n  with these clothes.\n</p>\n"
    },
    "Businesswear Bottoms": {
      "name": "Pantalones de Vestir de Negocios",
      "description": "<p>\n  Your typical corporative clothing. Show everyone that you're here and you mean\n  business.\n</p>\n"
    },
    "Businesswear Contact Lenses": {
      "name": "Lentes de Contacto de Vestir de Negocios",
      "description": "<p>\n  Your typical corporative clothing. Show everyone that you're here and you mean\n  business.\n</p>\n"
    },
    "Businesswear Footwear": {
      "name": "Calzado de Vestir de Negocios",
      "description": "<p>\n  Your typical corporative clothing. Show everyone that you're here and you mean\n  business.\n</p>\n"
    },
    "Businesswear Glasses": {
      "name": "Gafas de Vestir de Negocios",
      "description": "<p>\n  Your typical corporative clothing. Show everyone that you're here and you mean\n  business.\n</p>\n"
    },
    "Businesswear Hat": {
      "name": "Sombrero de Vestir de Negocios",
      "description": "<p>\n  Your typical corporative clothing. Show everyone that you're here and you mean\n  business.\n</p>\n"
    },
    "Businesswear Jacket": {
      "name": "Chaqueta de Vestir de Negocios",
      "description": "<p>\n  Your typical corporative clothing. Show everyone that you're here and you mean\n  business.\n</p>\n"
    },
    "Businesswear Jewelry": {
      "name": "Joyería de Vestir de Negocios",
      "description": "<p>\n  Your typical corporative clothing. Show everyone that you're here and you mean\n  business.\n</p>\n"
    },
    "Businesswear Mirrorshades": {
      "name": "Lentes Espejadas de Vestir de Negocios",
      "description": "<p>\n  Your typical corporative clothing. Show everyone that you're here and you mean\n  business.\n</p>\n"
    },
    "Businesswear Top": {
      "name": "Camisa de Vestir de Negocios",
      "description": "<p>\n  Your typical corporative clothing. Show everyone that you're here and you mean\n  business.\n</p>\n"
    },
    "Gang Colors Bottoms": {
      "name": "Pantalones de Pandilleros",
      "description": "<p>Show your allegiance with Gang colors!</p>\n"
    },
    "Gang Colors Contact Lenses": {
      "name": "Lentes de Contacto de Pandilleros",
      "description": "<p>Show your allegiance with Gang colors!</p>\n"
    },
    "Gang Colors Footwear": {
      "name": "Calzado de Pandilleros",
      "description": "<p>Show your allegiance with Gang colors!</p>\n"
    },
    "Gang Colors Glasses": {
      "name": "Gafas de Pandilleros",
      "description": "<p>Show your allegiance with Gang colors!</p>\n"
    },
    "Gang Colors Hat": {
      "name": "Sombrero de Pandilleros",
      "description": "<p>Show your allegiance with Gang colors!</p>\n"
    },
    "Gang Colors Jacket": {
      "name": "Chaqueta de Pandilleros",
      "description": "<p>Show your allegiance with Gang colors!</p>\n"
    },
    "Gang Colors Jewelry": {
      "name": "Joyería de Pandilleros",
      "description": "<p>Show your allegiance with Gang colors!</p>\n"
    },
    "Gang Colors Mirrorshades": {
      "name": "Lentes Espejadas de Pandilleros",
      "description": "<p>Show your allegiance with Gang colors!</p>\n"
    },
    "Gang Colors Top": {
      "name": "Remera de Pandilleros",
      "description": "<p>Show your allegiance with Gang colors!</p>\n"
    },
    "Generic Chic Bottoms": {
      "name": "Pantalones Chic Genéricos",
      "description": "<p>\n  The kind of clothing you find in the Mega-Plexes of the Dark Future. Perfect\n  if you don't want to stand out from a crowd.\n</p>\n"
    },
    "Generic Chic Contact Lenses": {
      "name": "Lentes de Contacto Chic Genéricos",
      "description": "<p>\n  The kind of clothing you find in the Mega-Plexes of the Dark Future. Perfect\n  if you don't want to stand out from a crowd.\n</p>\n"
    },
    "Generic Chic Footwear": {
      "name": "Calzado Chic Genérico",
      "description": "<p>\n  The kind of clothing you find in the Mega-Plexes of the Dark Future. Perfect\n  if you don't want to stand out from a crowd.\n</p>\n"
    },
    "Generic Chic Glasses": {
      "name": "Gafas Chic Genéricas",
      "description": "<p>\n  The kind of clothing you find in the Mega-Plexes of the Dark Future. Perfect\n  if you don't want to stand out from a crowd.\n</p>\n"
    },
    "Generic Chic Hat": {
      "name": "Sombrero Chic Genérico",
      "description": "<p>\n  The kind of clothing you find in the Mega-Plexes of the Dark Future. Perfect\n  if you don't want to stand out from a crowd.\n</p>\n"
    },
    "Generic Chic Jacket": {
      "name": "Chaqueta Chic Genérica",
      "description": "<p>\n  The kind of clothing you find in the Mega-Plexes of the Dark Future. Perfect\n  if you don't want to stand out from a crowd.\n</p>\n"
    },
    "Generic Chic Jewelry": {
      "name": "Joyería Chic Genérica",
      "description": "<p>\n  The kind of clothing you find in the Mega-Plexes of the Dark Future. Perfect\n  if you don't want to stand out from a crowd.\n</p>\n"
    },
    "Generic Chic Mirrorshades": {
      "name": "Lentes Espejadas Chic Genéricas",
      "description": "<p>\n  The kind of clothing you find in the Mega-Plexes of the Dark Future. Perfect\n  if you don't want to stand out from a crowd.\n</p>\n"
    },
    "Generic Chic Top": {
      "name": "Remera Chic Genérica",
      "description": "<p>\n  The kind of clothing you find in the Mega-Plexes of the Dark Future. Perfect\n  if you don't want to stand out from a crowd.\n</p>\n"
    },
    "High Fashion Bottoms": {
      "name": "Pantalones de Última Moda",
      "description": "<p>\n  Made from the most expensive quality materials and by the most exclusive\n  producers, this is what you wear when you've made it. The kind of fashion you\n  see supermodels wearing in videos on the Citinet.\n</p>\n"
    },
    "High Fashion Contact Lenses": {
      "name": "Lentes de Contacto de Última Moda",
      "description": "<p>\n  Made from the most expensive quality materials and by the most exclusive\n  producers, this is what you wear when you've made it. The kind of fashion you\n  see supermodels wearing in videos on the Citinet.\n</p>\n"
    },
    "High Fashion Footwear": {
      "name": "Calzado de Última Moda",
      "description": "<p>\n  Made from the most expensive quality materials and by the most exclusive\n  producers, this is what you wear when you've made it. The kind of fashion you\n  see supermodels wearing in videos on the Citinet.\n</p>\n"
    },
    "High Fashion Glasses": {
      "name": "Gafas de Última Moda",
      "description": "<p>\n  Made from the most expensive quality materials and by the most exclusive\n  producers, this is what you wear when you've made it. The kind of fashion you\n  see supermodels wearing in videos on the Citinet.\n</p>\n"
    },
    "High Fashion Hat": {
      "name": "Sombrero de Última Moda",
      "description": "<p>\n  Made from the most expensive quality materials and by the most exclusive\n  producers, this is what you wear when you've made it. The kind of fashion you\n  see supermodels wearing in videos on the Citinet.\n</p>\n"
    },
    "High Fashion Jacket": {
      "name": "Chaqueta de Última Moda",
      "description": "<p>\n  Made from the most expensive quality materials and by the most exclusive\n  producers, this is what you wear when you've made it. The kind of fashion you\n  see supermodels wearing in videos on the Citinet.\n</p>\n"
    },
    "High Fashion Jewelry": {
      "name": "Joyería de Última Moda",
      "description": "<p>\n  Made from the most expensive quality materials and by the most exclusive\n  producers, this is what you wear when you've made it. The kind of fashion you\n  see supermodels wearing in videos on the Citinet.\n</p>\n"
    },
    "High Fashion Mirrorshades": {
      "name": "Lentes Espejadas de Última Moda",
      "description": "<p>\n  Made from the most expensive quality materials and by the most exclusive\n  producers, this is what you wear when you've made it. The kind of fashion you\n  see supermodels wearing in videos on the Citinet.\n</p>\n"
    },
    "High Fashion Top": {
      "name": "Remera de Última Moda",
      "description": "<p>\n  Made from the most expensive quality materials and by the most exclusive\n  producers, this is what you wear when you've made it. The kind of fashion you\n  see supermodels wearing in videos on the Citinet.\n</p>\n"
    },
    "Leisurewear Bottoms": {
      "name": "Pantalones Informales",
      "description": "<p>\n  Your run-of-the-mill athletic clothing. Perfect to go for a jog or to relax at\n  home.\n</p>\n"
    },
    "Leisurewear Contact Lenses": {
      "name": "Lentes de Contacto Informales",
      "description": "<p>\n  Your run-of-the-mill athletic clothing. Perfect to go for a jog or to relax at\n  home.\n</p>\n"
    },
    "Leisurewear Footwear": {
      "name": "Calzado Informal",
      "description": "<p>\n  Your run-of-the-mill athletic clothing. Perfect to go for a jog or to relax at\n  home.\n</p>\n"
    },
    "Leisurewear Glasses": {
      "name": "Gafas Informales",
      "description": "<p>\n  Your run-of-the-mill athletic clothing. Perfect to go for a jog or to relax at\n  home.\n</p>\n"
    },
    "Leisurewear Hat": {
      "name": "Sombrero Informal",
      "description": "<p>\n  Your run-of-the-mill athletic clothing. Perfect to go for a jog or to relax at\n  home.\n</p>\n"
    },
    "Leisurewear Jacket": {
      "name": "Chaqueta Informal",
      "description": "<p>\n  Your run-of-the-mill athletic clothing. Perfect to go for a jog or to relax at\n  home.\n</p>\n"
    },
    "Leisurewear Jewelry": {
      "name": "Joyería Informal",
      "description": "<p>\n  Your run-of-the-mill athletic clothing. Perfect to go for a jog or to relax at\n  home.\n</p>\n"
    },
    "Leisurewear Mirrorshades": {
      "name": "Lentes Espejadas Informales",
      "description": "<p>\n  Your run-of-the-mill athletic clothing. Perfect to go for a jog or to relax at\n  home.\n</p>\n"
    },
    "Leisurewear Top": {
      "name": "Remera Informal",
      "description": "<p>\n  Your run-of-the-mill athletic clothing. Perfect to go for a jog or to relax at\n  home.\n</p>\n"
    },
    "Nomad Leathers Bottoms": {
      "name": "Pantalones de Cuero Nómadas",
      "description": "<p>If you want to look like a chromed-up cowboy, this is perfect for you.</p>\n"
    },
    "Nomad Leathers Contact Lenses": {
      "name": "Lentes de Contacto Nómades",
      "description": "<p>If you want to look like a chromed-up cowboy, this is perfect for you.</p>\n"
    },
    "Nomad Leathers Footwear": {
      "name": "Calzado de Cuero Nómadas",
      "description": "<p>If you want to look like a chromed-up cowboy, this is perfect for you.</p>\n"
    },
    "Nomad Leathers Glasses": {
      "name": "Gafas Nómadas",
      "description": "<p>If you want to look like a chromed-up cowboy, this is perfect for you.</p>\n"
    },
    "Nomad Leathers Hat": {
      "name": "Sombrero de Cuero Nómadas",
      "description": "<p>If you want to look like a chromed-up cowboy, this is perfect for you.</p>\n"
    },
    "Nomad Leathers Jacket": {
      "name": "Chaqueta de Cuero Nómada",
      "description": "<p>If you want to look like a chromed-up cowboy, this is perfect for you.</p>\n"
    },
    "Nomad Leathers Jewelry": {
      "name": "Joyería de Nómadas",
      "description": "<p>If you want to look like a chromed-up cowboy, this is perfect for you.</p>\n"
    },
    "Nomad Leathers Mirrorshades": {
      "name": "Lentes Espejadas Nómades",
      "description": "<p>If you want to look like a chromed-up cowboy, this is perfect for you.</p>\n"
    },
    "Nomad Leathers Top": {
      "name": "Remera de Nómades",
      "description": "<p>If you want to look like a chromed-up cowboy, this is perfect for you.</p>\n"
    },
    "Urban Flash Bottoms": {
      "name": "Pantalones de Flash Urbano",
      "description": "<p>\n  The most technological and flashy clothing you can find in the Time of the\n  Red.\n</p>\n"
    },
    "Urban Flash Contact Lenses": {
      "name": "Lentes de Contacto de Flash Urbano",
      "description": "<p>\n  The most technological and flashy clothing you can find in the Time of the\n  Red.\n</p>\n"
    },
    "Urban Flash Footwear": {
      "name": "Calzado de Flash Urbano",
      "description": "<p>\n  The most technological and flashy clothing you can find in the Time of the\n  Red.\n</p>\n"
    },
    "Urban Flash Glasses": {
      "name": "Gafas de Flash Urbano",
      "description": "<p>\n  The most technological and flashy clothing you can find in the Time of the\n  Red.\n</p>\n"
    },
    "Urban Flash Hat": {
      "name": "Sombrero de Flash Urbano",
      "description": "<p>\n  The most technological and flashy clothing you can find in the Time of the\n  Red.\n</p>\n"
    },
    "Urban Flash Jacket": {
      "name": "Chaqueta de Flash Urbano",
      "description": "<p>\n  The most technological and flashy clothing you can find in the Time of the\n  Red.\n</p>\n"
    },
    "Urban Flash Jewelry": {
      "name": "Joyería de Flash Urbano",
      "description": "<p>\n  The most technological and flashy clothing you can find in the Time of the\n  Red.\n</p>\n"
    },
    "Urban Flash Mirrorshades": {
      "name": "Lentes Espejadas de Flash Urbano",
      "description": "<p>\n  The most technological and flashy clothing you can find in the Time of the\n  Red.\n</p>\n"
    },
    "Urban Flash Top": {
      "name": "Remeras de Flash Urbano",
      "description": "<p>\n  The most technological and flashy clothing you can find in the Time of the\n  Red.\n</p>\n"
    }
  }
}