{
  "label": "Arsenal de Elflines Online",
  "mapping": {
    "dvTable": "sistema.Tablavd"
  },
  "entries": {
    "Arrow": {
      "name": "Flecha",
      "description": "<p>Basic ammo, nothing special.</p>\n"
    },
    "Poison Arrow": {
      "name": "Flecha Venenosa",
      "description": "<p>\n  No immediate damage. If meat target hit,\n  <strong>DV13 Resist Torture/Drugs</strong> Check. On a fail 2d6 damage to HP.\n  No Ablation.\n</p>\n"
    },
    "Chainmail Armor (Body)": {
      "name": "Armadura de cota de mallas (Cuerpo)",
      "description": "<p>Armor made up of innumerable metal rings. -2 to REF, DEX, and MOVE.</p>\n"
    },
    "Chainmail Armor (Head)": {
      "name": "Armadura de cota de mallas (Cabeza)",
      "description": "<p>\n  Armor made up of innumerable metal rings for your head. -2 to REF, DEX, and\n  MOVE.\n</p>\n"
    },
    "Full Plate Armor (Body)": {
      "name": "Armadura de placas completa (Cuerpo)",
      "description": "<p>\n  Metal plated armor to resist the most powerful hits. -4 to REF, DEX, and MOVE.\n</p>\n"
    },
    "Full Plate Armor (Head)": {
      "name": "Armadura de placas completa (Cabeza)",
      "description": "<p>\n  Metal plated armor to resist the most powerful hits to your head. -4 to REF,\n  DEX, and MOVE.\n</p>\n"
    },
    "Leather Armor (Body)": {
      "name": "Armadura de cuero (Cuerpo)",
      "description": "<p>Simple Leather armor. No armor penalty.</p>\n"
    },
    "Leather Armor (Head)": {
      "name": "Armadura de cuero (Cabeza)",
      "description": "<p>Simple Leather armor for your head. No armor penalty.</p>\n"
    },
    "Shield": {
      "name": "Escudo",
      "description": "<p>Requires an arm and has HP that is reduced by damage.</p>\n"
    },
    "Studded Leather Armor (Body)": {
      "name": "Armadura de cuero tachonado (Cuerpo)",
      "description": "<p>Standard Studded Leather Armor. No armor penalty.</p>\n"
    },
    "Studded Leather Armor (Head)": {
      "name": "Armadura de cuero tachonado (Cabeza)",
      "description": "<p>Standard Studded Leather Armor for your head. No armor penalty.</p>\n"
    },
    "Sacred Herbs": {
      "name": "Hierbas sagradas",
      "description": "<p>\n  Ingesting Sacred Herbs immediately heals HP equal to the user's BODY plus\n  their WILL.\n</p>\n"
    },
    "Vial of Poison": {
      "name": "Frasco de veneno",
      "description": "<p>2d6 damage unless Resist Torture/Drugs. Armor does not apply.</p>\n"
    },
    "Bow": {
      "name": "Arco",
      "description": "<p>A revitalized bow, reloaded as part of an Attack Action.</p>\n",
      "dvTable": "VD Arcos y Ballestas"
    },
    "Dagger": {
      "name": "Daga",
      "description": "<p>A knife fit for a hunter.</p>\n"
    },
    "Greataxe": {
      "name": "Hacha Grande",
      "description": "<p>\n  A wooden pole with a curved blade on each side. Favoured by raid parties for\n  close engagements. Requires 2 hands to wield even by a wielder with Body 8 or\n  higher.\n</p>\n"
    },
    "Longsword": {
      "name": "Espada larga",
      "description": "<p>\n  A bladed, hilted weapon. Specifically designed for cutting or thrusting. 2 ROF\n  if wielding two longswords.\n</p>\n"
    },
    "Shortsword": {
      "name": "Espada corta",
      "description": "<p>\n  A short bladed, hilted weapon. Specifically designed for cutting or thrusting.\n</p>\n"
    }
  }
}