{
  "label": "Waffen",
  "mapping": {
    "dvTable": "system.dvTable"
  },
  "entries": {
    "Air Pistol": {
      "name": "Luftpistole",
      "description": "<p>\n  An Exotic Medium Pistol. Fires Paintballs. If loaded with acid it is able to\n  ablate armor by one with each hit.\n</p>\n",
      "dvTable": "SG Pistole"
    },
    "Assault Rifle (Excellent)": {
      "name": "Sturmgewehr (Hervorragende Qualität)",
      "description": "<p>A standard-issue assault rifle. +1 to Attack.</p>\n",
      "dvTable": "SG Sturmgewehr"
    },
    "Assault Rifle (Poor)": {
      "name": "Sturmgewehr (Schlechte Qualität)",
      "description": "<p>\n  A standard-issue assault rifle. If you roll 1 on Attack (Crit fail) the gun\n  jams and requires using an action to clear.\n</p>\n",
      "dvTable": "SG Sturmgewehr"
    },
    "Assault Rifle": {
      "name": "Sturmgewehr",
      "description": "<p>A standard-issue assault rifle.</p>\n",
      "dvTable": "SG Sturmgewehr"
    },
    "Baseball Bat (Excellent)": {
      "name": "Baseballschläger (Hervorragende Qualität)",
      "description": "<p>\n  A firmly weighted bat. A favourite weapon of the Baseball Furies. +1 to\n  Attack.\n</p>\n"
    },
    "Baseball Bat (Poor)": {
      "name": "Baseballschläger (Schlechte Qualität)",
      "description": "<p>\n  A firmly weighted bat. A favourite weapon of the Baseball Furies. If you roll\n  1 on Attack (Crit Fail) the weapon fails in some way and requires an action to\n  be made usable again.\n</p>\n"
    },
    "Baseball Bat": {
      "name": "Baseballschläger",
      "description": "<p>A firmly weighted bat. A favourite weapon of the Baseball Furies.</p>\n"
    },
    "Bow (Excellent)": {
      "name": "Bogen (Hervorragende Qualität)",
      "description": "<p>An excellent quality bow, reloaded as part of an Attack action.</p>\n<p>+1 to Attack check.</p>\n",
      "dvTable": "SG Bögen und Armbrüste"
    },
    "Bow (Poor)": {
      "name": "Bogen (Schlechte Qualität)",
      "description": "<p>A poor quality bow, reloaded as part of an Attack action.</p>\n<p>\n  If you roll 1 on Attack (Crit fail) the weapon jams and requires using an\n  action to clear.\n</p>\n",
      "dvTable": "SG Bögen und Armbrüste"
    },
    "Bow": {
      "name": "Bogen",
      "description": "<p>A revitalized bow, reloaded as part of an Attack action.</p>\n",
      "dvTable": "SG Bögen und Armbrüste"
    },
    "Chainsaw (Excellent)": {
      "name": "Kettensäge (Hervorragende Qualität)",
      "description": "<p>\n  A portable, refuellable saw that runs on CHOOH<sup>2</sup>. Lasts about 2-3\n  hours on one tank. +1 to Attack.\n</p>\n"
    },
    "Chainsaw (Poor)": {
      "name": "Kettensäge (Schlechte Qualität)",
      "description": "<p>\n  A portable, refuellable saw that runs on CHOOH<sup>2</sup>. Lasts about 2-3\n  hours on one tank. If you roll 1 on Attack (Crit Fail) the weapon fails in\n  some way and requires an action to be made usable again.\n</p>\n"
    },
    "Chainsaw": {
      "name": "Kettensäge",
      "description": "<p>\n  A portable, refuellable saw that runs on CHOOH<sup>2</sup>. Lasts about 2-3\n  hours on one tank.\n</p>\n"
    },
    "Combat Knife (Excellent)": {
      "name": "Kampfmesser (Hervorragende Qualität)",
      "description": "<p>A knife fit for the streets. +1 to Attack.</p>\n"
    },
    "Combat Knife (Poor)": {
      "name": "Kampfmesser (Schlechte Qualität)",
      "description": "<p>\n  A knife fit for the streets. If you roll 1 on Attack (Crit Fail) the weapon\n  fails in some way and requires an action to be made usable again.\n</p>\n"
    },
    "Combat Knife": {
      "name": "Kampfmesser",
      "description": "<p>A knife fit for the streets.</p>\n"
    },
    "Crossbow (Excellent)": {
      "name": "Armbrust (Hervorragende Qualität)",
      "description": "<p>An excellent quality crossbow, reloaded as part of an Attack action.</p>\n<p>+1 to Attack check.</p>\n",
      "dvTable": "SG Bögen und Armbrüste"
    },
    "Crossbow (Poor)": {
      "name": "Armbrust (Schlechte Qualität)",
      "description": "<p>A poor quality crossbow, reloaded as part of an Attack action.</p>\n<p>\n  If you roll 1 on Attack (Crit fail) the weapon jams and requires using an\n  action to clear.\n</p>\n",
      "dvTable": "SG Bögen und Armbrüste"
    },
    "Crossbow": {
      "name": "Armbrust",
      "description": "<p>A standard crossbow, reloaded as part of an Attack action.</p>\n",
      "dvTable": "SG Bögen und Armbrüste"
    },
    "Crowbar (Excellent)": {
      "name": "Brecheisen (Hervorragende Qualität)",
      "description": "<p>\n  Useful as both a tool and a weapon. A rod of iron with split wedges on the\n  ends. +1 to Attack.\n</p>\n"
    },
    "Crowbar (Poor)": {
      "name": "Brecheisen (Schlechte Qualität)",
      "description": "<p>\n  Useful as both a tool and a weapon. A rod of iron with split wedges on the\n  ends. If you roll 1 on Attack (Crit Fail) the weapon fails in some way and\n  requires an action to be made usable again.\n</p>\n"
    },
    "Crowbar": {
      "name": "Brecheisen",
      "description": "<p>\n  Useful as both a tool and a weapon. A rod of iron with split wedges on the\n  ends.\n</p>\n"
    },
    "Dartgun": {
      "name": "Pfeilschuss­pistole",
      "description": "<p>An Exotic Very Heavy Pistol.</p>\n",
      "dvTable": "SG Pistole"
    },
    "EMG-86 Railgun": {
      "name": "EMG-86 Railgun",
      "description": "<p>\n  An Exotic Assault Rifle. It cannot make Aimed or Autofire Shots. Requires BODY\n  11 or higher (unless mounted). Ignores any armor below SP11*.\n</p>\n<p>\n  <em\n    >*Not currently supported to will need to manually apply damage to armoured\n    targets</em\n  >\n</p>\n",
      "dvTable": "SG Sturmgewehr"
    },
    "Flamethrower": {
      "name": "Flammenwerfer",
      "description": "<p>An Exotic Shotgun that uses the Heavy Weapons Skill.</p>\n",
      "dvTable": "SG Flinte (Flintenpatrone)"
    },
    "Grenade Launcher (Excellent)": {
      "name": "Granatwerfer (Hervorragende Qualität)",
      "description": "<p>\n  A high-impact grenade launcher. You can use a variety of grenades with this.\n  +1 to Attack.\n</p>\n",
      "dvTable": "SG Granatwerfer"
    },
    "Grenade Launcher (Poor)": {
      "name": "Granatwerfer (Schlechte Qualität)",
      "description": "<p>\n  A high-impact grenade launcher. You can use a variety of grenades with this.\n  If you roll 1 on Attack (Crit fail) the gun jams and requires using an action\n  to clear.\n</p>\n",
      "dvTable": "SG Granatwerfer"
    },
    "Grenade Launcher": {
      "name": "Granatwerfer",
      "description": "<p>\n  A high-impact grenade launcher. You can use a variety of grenades with this.\n</p>\n",
      "dvTable": "SG Granatwerfer"
    },
    "Heavy Melee (Excellent)": {
      "name": "Schwere Nahkampfwaffe (Hervorragende Qualität)",
      "description": "<p>Generic Excellent Quality Heavy Melee Weapon.</p>\n<p>+1 to Attack.</p>\n"
    },
    "Heavy Melee (Poor)": {
      "name": "Schwere Nahkampfwaffe (Schlechte Qualität)",
      "description": "<p>Generic Poor Quality Heavy Melee Weapon.</p>\n<p>\n  If you roll 1 on Attack (Crit Fail) the weapon fails in some way and requires\n  an action to be made usable again.\n</p>\n"
    },
    "Heavy Melee": {
      "name": "Schwere Nahkampfwaffe",
      "description": "<p>Generic Heavy Melee Weapon.</p>\n"
    },
    "Heavy Pistol (Excellent)": {
      "name": "Schwere Pistole (Hervorragende Qualität)",
      "description": "<p>A concealable, heavy pistol. +1 to Attack.</p>\n",
      "dvTable": "SG Pistole"
    },
    "Heavy Pistol (Poor)": {
      "name": "Schwere Pistole (Schlechte Qualität)",
      "description": "<p>\n  A concealable, heavy pistol. If you roll 1 on Attack (Crit fail) the gun jams\n  and requires using an action to clear.\n</p>\n",
      "dvTable": "SG Pistole"
    },
    "Heavy Pistol": {
      "name": "Schwere Pistole",
      "description": "<p>A concealable, heavy pistol.</p>\n",
      "dvTable": "SG Pistole"
    },
    "Heavy SMG (Excellent)": {
      "name": "Schwere MP (Hervorragende Qualität)",
      "description": "<p>A heavy SMG. Due to its size it can't be concealed. +1 to Attack.</p>\n",
      "dvTable": "SG MP"
    },
    "Heavy SMG (Poor)": {
      "name": "Schwere MP (Schlechte Qualität)",
      "description": "<p>\n  A heavy SMG. Due to its size it can't be concealed. If you roll 1 on Attack\n  (Crit fail) the gun jams and requires using an action to clear.\n</p>\n",
      "dvTable": "SG MP"
    },
    "Heavy SMG": {
      "name": "Schwere MP",
      "description": "<p>A heavy SMG. Due to its size it can't be concealed.</p>\n",
      "dvTable": "SG MP"
    },
    "Helicopter Blades (Excellent)": {
      "name": "Rotorblatt (Hervorragende Qualität)",
      "description": "<p>\n  Taken from a derelict aircraft, these blades are capable of slicing most\n  things easily. +1 to Attack.\n</p>\n"
    },
    "Helicopter Blades (Poor)": {
      "name": "Rotorblatt (Schlechte Qualität)",
      "description": "<p>\n  Taken from a derelict aircraft, these blades are capable of slicing most\n  things easily. If you roll 1 on Attack (Crit Fail) the weapon fails in some\n  way and requires an action to be made usable again.\n</p>\n"
    },
    "Helicopter Blades": {
      "name": "Rotorblätter",
      "description": "<p>\n  Taken from a derelict aircraft, these blades are capable of slicing most\n  things easily.\n</p>\n"
    },
    "Helix": {
      "name": "Helix",
      "description": "<p>\n  An Exotic Assault Rifle that uses only Autofire. Holds 40 bullets, using 20\n  bullets with each attack. Uses Autofire rules with a multiplication up to a\n  maximum of 5. Requires BODY 11 or higher (unless mounted).\n</p>\n",
      "dvTable": "SG Sturmgewehr"
    },
    "Hurricane Assault Weapon": {
      "name": "Hurricane Sturmschrotflinte",
      "description": "<p>\n  An Exotic Shotgun with 2 ROF. Cannot make aimed shots and needs BODY 11 or\n  higher (unless mounted).\n</p>\n",
      "dvTable": "SG Flinte (Flintenpatrone)"
    },
    "Lead Pipe (Excellent)": {
      "name": "Bleirohr (Hervorragende Qualität)",
      "description": "<p>\n  A hollow cylinder, typically made of metal or fiberglass. It may have conveyed\n  fluids once. +1 to Attack.\n</p>\n"
    },
    "Lead Pipe (Poor)": {
      "name": "Bleirohr (Schlechte Qualität)",
      "description": "<p>\n  A hollow cylinder, typically made of metal or fiberglass. It may have conveyed\n  fluids once. If you roll 1 on Attack (Crit Fail) the weapon fails in some way\n  and requires an action to be made usable again.\n</p>\n"
    },
    "Lead Pipe": {
      "name": "Bleirohr",
      "description": "<p>\n  A hollow cylinder, typically made of metal or fiberglass. It may have conveyed\n  fluids once.\n</p>\n"
    },
    "Light Melee (Excellent)": {
      "name": "Leichte Nahkampfwaffe (Hervorragende Qualität)",
      "description": "<p>Generic Excellent Qulaity Light Melee weapon.</p>\n<p>+1 to Attack.</p>\n"
    },
    "Light Melee (Poor)": {
      "name": "Leichte Nahkampfwaffe (Schlechte Qualität)",
      "description": "<p>Generic Poor Quality Light Melee weapon.</p>\n<p>\n  If you roll 1 on Attack (Crit Fail) the weapon fails in some way and requires\n  an action to be made usable again.\n</p>\n"
    },
    "Light Melee": {
      "name": "Leichte Nahkampfwaffe",
      "description": "<p>Generic Light Melee weapon.</p>\n"
    },
    "Machete (Excellent)": {
      "name": "Machete (Hervorragende Qualität)",
      "description": "<p>\n  A long-bladed knife with a variety of uses. Known to be a favourite to some\n  gangs of Night City. +1 to Attack.\n</p>\n"
    },
    "Machete (Poor)": {
      "name": "Machete (Schlechte Qualität)",
      "description": "<p>\n  A long-bladed knife with a variety of uses. Known to be a favourite to some\n  gangs of Night City. If you roll 1 on Attack (Crit Fail) the weapon fails in\n  some way and requires an action to be made usable again.\n</p>\n"
    },
    "Machete": {
      "name": "Machete",
      "description": "<p>\n  A long-bladed knife with a variety of uses. Known to be a favourite to some\n  gangs of Night City.\n</p>\n"
    },
    "Malorian Arms 3516": {
      "name": "Malorian Arms 3516",
      "description": "<p>\n  An Exotic, Excellent Quality Very Heavy Pistol. Comes with a Smartgun Link*\n  that must be used.\n</p>\n<p><em>*Must be manually added after acquiring the weapon</em></p>\n",
      "dvTable": "SG Pistole"
    },
    "Martial Arts": {
      "name": "Kampfkunst",
      "description": "<p>Throwing hands, does ignore half armor.</p>\n"
    },
    "Medium Melee (Excellent)": {
      "name": "Mittelschwere Nahkampfwaffe (Hervorragende Qualität)",
      "description": "<p>Generic Excellent Quality Medium Melee Weapon.</p>\n<p>+1 to Attack.</p>\n"
    },
    "Medium Melee (Poor)": {
      "name": "Mittelschwere Nahkampfwaffe (Schlechte Qualität)",
      "description": "<p>Generic Poor Quality Medium Melee Weapon.</p>\n<p>\n  If you roll 1 on Attack (Crit Fail) the weapon fails in some way and requires\n  an action to be made usable again.\n</p>\n"
    },
    "Medium Melee": {
      "name": "Mittelschwere Nahkampfwaffe",
      "description": "<p>Generic Medium Melee Weapon.</p>\n"
    },
    "Medium Pistol (Excellent)": {
      "name": "Mittelschwere Pistole (Hervorragende Qualität)",
      "description": "<p>A concealable, medium-sized pistol. +1 to Attack.</p>\n",
      "dvTable": "SG Pistole"
    },
    "Medium Pistol (Poor)": {
      "name": "Mittelschwere Pistole (Schlechte Qualität)",
      "description": "<p>\n  A concealable, medium-sized pistol. If you roll 1 on Attack (Crit fail) the\n  gun jams and requires using an action to clear.\n</p>\n",
      "dvTable": "SG Pistole"
    },
    "Medium Pistol": {
      "name": "Mittelschwere Pistole",
      "description": "<p>A concealable, medium-sized pistol.</p>\n",
      "dvTable": "SG Pistole"
    },
    "Microwaver": {
      "name": "Mikrowellenstrahler",
      "description": "<p>\n  An Exotic Very Heavy Pistol. Causes cyberware or electrical components to be\n  rendered inoperable for a minute unless the target passes a\n  <strong>DV15 Cybertech Check</strong>.\n</p>\n",
      "dvTable": "SG Pistole"
    },
    "Mono-Three": {
      "name": "Mono-Drei",
      "description": "<p>\n  An Exotic, Excellent Quality, Two-Handed Very Heavy Melee Weapon. It appears\n  as a high-tech katana, able to ignore any armor below SP11*.\n</p>\n<p>\n  <em\n    >*Not currently supported to will need to manually apply damage to armoured\n    targets</em\n  >\n</p>\n"
    },
    "Naginata (Excellent)": {
      "name": "Naginata (Hervorragende Qualität)",
      "description": "<p>\n  A japanese wooden pole with a curved blade on one side. Favoured by Arasaka\n  tactical teams for close engagements. +1 to Attack.\n</p>\n"
    },
    "Naginata (Poor)": {
      "name": "Naginata (Schlechte Qualität)",
      "description": "<p>\n  A japanese wooden pole with a curved blade on one side. Favoured by Arasaka\n  tactical teams for close engagements. If you roll 1 on Attack (Crit Fail) the\n  weapon fails in some way and requires an action to be made usable again.\n</p>\n"
    },
    "Naginata": {
      "name": "Naginata",
      "description": "<p>\n  A japanese wooden pole with a curved blade on one side. Favoured by Arasaka\n  tactical teams for close engagements.\n</p>\n"
    },
    "Rippers": {
      "name": "Krallen",
      "description": "<p>Cyberware weapon. You must have the appropriate cyberware installed.</p>\n"
    },
    "Rocket Launcher (Excellent)": {
      "name": "Raketenwerfer (Hervorragende Qualität)",
      "description": "<p>\n  Bring out the big guns. This rocket launcher will do some damage. +1 to\n  Attack.\n</p>\n",
      "dvTable": "SG Raketenwerfer"
    },
    "Rocket Launcher (Poor)": {
      "name": "Raketenwerfer (Schlechte Qualität)",
      "description": "<p>\n  Bring out the big guns. This rocket launcher will do some damage. If you roll\n  1 on Attack (Crit fail) the gun jams and requires using an action to clear.\n</p>\n",
      "dvTable": "SG Raketenwerfer"
    },
    "Rocket Launcher": {
      "name": "Raketenwerfer",
      "description": "<p>Bring out the big guns. This rocket launcher will do some damage.</p>\n",
      "dvTable": "SG Raketenwerfer"
    },
    "Shotgun (Excellent)": {
      "name": "Flinte (Hervorragende Qualität)",
      "description": "<p>An all-purpose shotgun. +1 to Attack.</p>\n",
      "dvTable": "SG Flinte (Flintenpatrone)"
    },
    "Shotgun (Poor)": {
      "name": "Flinte (Schlechte Qualität)",
      "description": "<p>\n  An all-purpose shotgun. If you roll 1 on Attack (Crit fail) the gun jams and\n  requires using an action to clear.\n</p>\n",
      "dvTable": "SG Flinte (Flintenpatrone)"
    },
    "Shotgun": {
      "name": "Flinte",
      "description": "<p>An all-purpose shotgun.</p>\n",
      "dvTable": "SG Flinte (Flintenpatrone)"
    },
    "Shrieker": {
      "name": "Kreischer",
      "description": "<p>\n  An Exotic Very Heavy Pistol. Requires ear protection to prevent Damaged Ear\n  critical injuries. The target must beat a\n  <strong>DV15 Resist Torture/Drugs</strong> Check or suffer the Damaged Ear\n  critical injury.\n</p>\n",
      "dvTable": "SG Pistole"
    },
    "Sledgehammer (Excellent)": {
      "name": "Vorschlaghammer (Hervorragende Qualität)",
      "description": "<p>\n  A large mallet-like object with a flat metal head which distributes impacted\n  force over a wide area. +1 to Attack.\n</p>\n"
    },
    "Sledgehammer (Poor)": {
      "name": "Vorschlaghammer (Schlechte Qualität)",
      "description": "<p>\n  A large mallet-like object with a flat metal head which distributes impacted\n  force over a wide area. If you roll 1 on Attack (Crit Fail) the weapon fails\n  in some way and requires an action to be made usable again.\n</p>\n"
    },
    "Sledgehammer": {
      "name": "Vorschlaghammer",
      "description": "<p>\n  A large mallet-like object with a flat metal head which distributes impacted\n  force over a wide area.\n</p>\n"
    },
    "SMG (Excellent)": {
      "name": "MP (Hervorragende Qualität)",
      "description": "<p>A concealable SMG. +1 to Attack.</p>\n",
      "dvTable": "SG MP"
    },
    "SMG (Poor)": {
      "name": "MP (Schlechte Qualität)",
      "description": "<p>\n  A concealable SMG. If you roll 1 on Attack (Crit fail) the gun jams and\n  requires using an action to clear.\n</p>\n",
      "dvTable": "SG MP"
    },
    "SMG": {
      "name": "MP",
      "description": "<p>A concealable SMG.</p>\n",
      "dvTable": "SG MP"
    },
    "Sniper Rifle (Excellent)": {
      "name": "Scharfschützengewehr (Hervorragende Qualität)",
      "description": "<p>\n  A long-distance sniper rifle. Holds 4 bullets in a magazine. +1 to Attack.\n</p>\n",
      "dvTable": "SG Scharfschützengewehr"
    },
    "Sniper Rifle (Poor)": {
      "name": "Schwarfschützengewehr (Schlechte Qualität)",
      "description": "<p>\n  A long-distance sniper rifle. Holds 4 bullets in a magazine. If you roll 1 on\n  Attack (Crit fail) the gun jams and requires using an action to clear.\n</p>\n",
      "dvTable": "SG Scharfschützengewehr"
    },
    "Sniper Rifle": {
      "name": "Scharfschützengewehr",
      "description": "<p>A long-distance sniper rifle. Holds 4 bullets in a magazine.</p>\n",
      "dvTable": "SG Scharfschützengewehr"
    },
    "Spiked Bat (Excellent)": {
      "name": "Nagelbrett (Hervorragende Qualität)",
      "description": "<p>\n  An advancement over a regular bat. A number of nails have been hammered\n  through towards the tip. +1 to Attack.\n</p>\n"
    },
    "Spiked Bat (Poor)": {
      "name": "Nagelbrett (Schlechte Qualität)",
      "description": "<p>\n  An advancement over a regular bat. A number of nails have been hammered\n  through towards the tip. If you roll 1 on Attack (Crit Fail) the weapon fails\n  in some way and requires an action to be made usable again.\n</p>\n"
    },
    "Spiked Bat": {
      "name": "Nagelbrett",
      "description": "<p>\n  An advancement over a regular bat. A number of nails have been hammered\n  through towards the tip.\n</p>\n"
    },
    "Stun Baton": {
      "name": "Betäubungsstock",
      "description": "<p>\n  An Exotic, One-handed Medium Melee Weapon. Target is knocked unconscious if\n  damage dealt would reduce them to under 1 HP. Doesn't cause Critical Injuries\n  or ablate armor.\n</p>\n"
    },
    "Stun Gun": {
      "name": "Betäubungspistole",
      "description": "<p>\n  An Exotic Heavy Pistol. Target is knocked unconscious if damage dealt would\n  reduce them to under 1 HP. Doesn't cause Critical Injuries or ablate armor.\n</p>\n",
      "dvTable": "SG Pistole"
    },
    "Sword (Excellent)": {
      "name": "Schwert (Hervorragende Qualität)",
      "description": "<p>\n  A bladed, hilted weapon. Specifically designed for cutting or thrusting. +1 to\n  Attack.\n</p>\n"
    },
    "Sword (Poor)": {
      "name": "Schwert (Schlechte Qualität)",
      "description": "<p>\n  A bladed, hilted weapon. Specifically designed for cutting or thrusting. If\n  you roll 1 on Attack (Crit Fail) the weapon fails in some way and requires an\n  action to be made usable again.\n</p>\n"
    },
    "Sword": {
      "name": "Schwert",
      "description": "<p>A bladed, hilted weapon. Specifically designed for cutting or thrusting.</p>\n"
    },
    "Thrown Weapon": {
      "name": "Wurfwaffe",
      "description": "<p>\n  A basic lob or pitch of an object. Use an Action to make a Ranged Attack at up\n  to 25m/yds. Targets can choose to Dodge your throw if they can Dodge bullets.\n  Melee weapons deal their base damage, but don't penetrate half SP.\n</p>\n",
      "dvTable": "SG Wurfwaffe"
    },
    "Tomahawk (Excellent)": {
      "name": "Tomahawk (Hervorragende Qualität)",
      "description": "<p>A light axe that can be thrown. +1 to Attack.</p>\n"
    },
    "Tomahawk (Poor)": {
      "name": "Tomahawk (Schlechte Qualität)",
      "description": "<p>\n  A light axe that can be thrown. If you roll 1 on Attack (Crit Fail) the weapon\n  fails in some way and requires an action to be made usable again.\n</p>\n"
    },
    "Tomahawk": {
      "name": "Tomahawk",
      "description": "<p>A light axe that can be thrown.</p>\n"
    },
    "U-56 Grenade Launcher \"Cowboy\"": {
      "name": "U-56 Granatwerfer \"Cowboy\"",
      "description": "<p>\n  An Exotic Grenade Launcher with 2 ROF. Holds four grenades. Requires BODY 11\n  or higher (unless mounted).\n</p>\n",
      "dvTable": "SG Granatwerfer"
    },
    "Unarmed": {
      "name": "Faustkampf",
      "description": "<p>Throwing hands, does not ignore half armor.</p>\n"
    },
    "Very Heavy Melee (Excellent)": {
      "name": "Sehr schwere Nahkampfwaffe (Hervorragende Qualität)",
      "description": "<p>Generic Excellent Quality Very Heavy Melee Weapon.</p>\n<p>+1 to Attack.</p>\n"
    },
    "Very Heavy Melee (Poor)": {
      "name": "Sehr schwere Nahkampfwaffe (Schlechte Qualität)",
      "description": "<p>Generic Poor Quality Very Heavy Melee Weapon.</p>\n<p>\n  If you roll 1 on Attack (Crit Fail) the weapon fails in some way and requires\n  an action to be made usable again.\n</p>\n"
    },
    "Very Heavy Melee": {
      "name": "Sehr schwere Nahkampfwaffe",
      "description": "<p>Generic Very Heavy Melee Weapon.</p>\n"
    },
    "Very Heavy Pistol (Excellent)": {
      "name": "Sehr schwere Pistole (Hervorragende Qualität)",
      "description": "<p>A very heavy pistol. It can't be concealed. +1 to Attack.</p>\n",
      "dvTable": "SG Pistole"
    },
    "Very Heavy Pistol (Poor)": {
      "name": "Sehr schwere Pistole (Schlechte Qualität)",
      "description": "<p>\n  A very heavy pistol. It can't be concealed. If you roll 1 on Attack (Crit\n  fail) the gun jams and requires using an action to clear.\n</p>\n",
      "dvTable": "SG Pistole"
    },
    "Very Heavy Pistol": {
      "name": "Sehr Schwere Pistole",
      "description": "<p>A very heavy pistol. It can't be concealed.</p>\n",
      "dvTable": "SG Pistole"
    }
  }
}