{
  "label": "Ferite Critiche (Corpo)",
  "mapping": {},
  "entries": {
    "Broken Arm": {
      "name": "Braccio Rotto",
      "description": "<p>Arm unusable. Drop what it was holding</p>\n"
    },
    "Broken Leg": {
      "name": "Gamba Rotta",
      "description": "<p>-4 MOVE (minimum MOVE of 1).</p>\n"
    },
    "Broken Ribs": {
      "name": "Costole Rotte",
      "description": "<p>Suffer crit damage at end of turn if you move more than 4m/yrds on foot.</p>\n"
    },
    "Collapsed Lung": {
      "name": "Polmone Collassato",
      "description": "<p>-2 MOVE (minimum MOVE of 1).</p>\n"
    },
    "Crushed Fingers": {
      "name": "Dita Schiacciate",
      "description": "<p>-4 to hand actions.</p>\n"
    },
    "Dismembered Arm": {
      "name": "Braccio Smembrato",
      "description": "<p>Arm removed, drop anything it was holding.</p>\n"
    },
    "Dismembered Hand": {
      "name": "Mano Smembrata",
      "description": "<p>Hand removed, drop anything it was holding.</p>\n"
    },
    "Dismembered Leg": {
      "name": "Gamba Smembrata",
      "description": "<p>Leg is removed. Cannot Dodge. -6 MOVE (minimum MOVE of 1).</p>\n"
    },
    "Foreign Object": {
      "name": "Corpo Estraneo",
      "description": "<p>Suffer Crit damage at end of turn if move more than 4m/yrds on foot.</p>\n"
    },
    "Spinal Injury": {
      "name": "Lesione Spinale",
      "description": "<p>Next turn: No action, move only.</p>\n"
    },
    "Torn Muscle": {
      "name": "Strappo Muscolare",
      "description": "<p>-2 to Melee Attacks.</p>\n"
    }
  }
}