{
  "label": "Clothing",
  "mapping": {},
  "entries": {
    "Holo-Wear": {
      "name": "Holo-Wear",
      "description": "<p>\n  Holographic clothing that can get disabled by EMP blasts for a minute. Can\n  swap styles with an action if purchased.\n</p>\n"
    }
  }
}